{"success":true,"data":[{"projection_id":"a45UR000002noAbYAI","matter_link":"a0OUR00000HhhSv2AJ","projection_name":"P-233048","projection_created_date":"2026-01-09T20:11:04.000Z","projected_actual_value":null,"projected_future_value":null,"projection_matter_phase":"1. Insurance Verification","matter_id":"a0OUR00000HhhSv2AJ","matter_name":"Orlando Perdomo Alfonso 2/14/2025","matter_created_date":"2026-01-09T20:11:02.000Z","matter_phase":"1. Insurance Verification","legal_case_id":null,"case_code":null,"case_type":"Personal Injury","litigation_stage":"Presuit","client_name":"Orlando Perdomo Alfonso","case_open_date":"2026-01-09","accident_timestamp":"2025-02-15T00:00:00.000Z","statute_of_limitations":"2027-02-14","first_demand_date":null,"first_offer_date":null,"disengagement_date":null,"case_law_status":"New","internal_case_status":"1. Insurance Verification","tbi_status":"PENDING TBI Decision","priority_rating":"5.00","latest_offer_amount":"0.00","earliest_offer_amount":null,"valuation_low":"0.00","valuation_high":"0.00","total_settlement_amount":null},{"projection_id":"a45UR000002nhCLYAY","matter_link":"a0OUR00000Het0s2AB","projection_name":"P-232998","projection_created_date":"2026-01-02T14:23:44.000Z","projected_actual_value":null,"projected_future_value":null,"projection_matter_phase":"1. Insurance Verification","matter_id":"a0OUR00000Het0s2AB","matter_name":"Vianka Melissa Tolentino 12/30/2025","matter_created_date":"2026-01-02T14:23:41.000Z","matter_phase":"1. Insurance Verification","legal_case_id":null,"case_code":null,"case_type":"Personal Injury","litigation_stage":"Presuit","client_name":"Vianka Tolentino","case_open_date":"2026-01-02","accident_timestamp":"2025-12-31T03:42:00.000Z","statute_of_limitations":"2027-12-30","first_demand_date":null,"first_offer_date":null,"disengagement_date":null,"case_law_status":"New","internal_case_status":"1. Insurance Verification","tbi_status":"PENDING TBI Decision","priority_rating":"6.00","latest_offer_amount":"0.00","earliest_offer_amount":null,"valuation_low":"25000.00","valuation_high":"0.00","total_settlement_amount":null},{"projection_id":"a45UR000002nhCMYAY","matter_link":"a0OUR00000Het0s2AB","projection_name":"P-232999","projection_created_date":"2026-01-02T14:23:44.000Z","projected_actual_value":null,"projected_future_value":null,"projection_matter_phase":"1. Insurance Verification","matter_id":"a0OUR00000Het0s2AB","matter_name":"Vianka Melissa Tolentino 12/30/2025","matter_created_date":"2026-01-02T14:23:41.000Z","matter_phase":"1. Insurance Verification","legal_case_id":null,"case_code":null,"case_type":"Personal Injury","litigation_stage":"Presuit","client_name":"Vianka Tolentino","case_open_date":"2026-01-02","accident_timestamp":"2025-12-31T03:42:00.000Z","statute_of_limitations":"2027-12-30","first_demand_date":null,"first_offer_date":null,"disengagement_date":null,"case_law_status":"New","internal_case_status":"1. Insurance Verification","tbi_status":"PENDING TBI Decision","priority_rating":"6.00","latest_offer_amount":"0.00","earliest_offer_amount":null,"valuation_low":"25000.00","valuation_high":"0.00","total_settlement_amount":null},{"projection_id":"a45UR000002nhVhYAI","matter_link":"a0OUR00000Hew9x2AB","projection_name":"P-233000","projection_created_date":"2026-01-02T16:35:12.000Z","projected_actual_value":null,"projected_future_value":null,"projection_matter_phase":"1. Insurance Verification","matter_id":"a0OUR00000Hew9x2AB","matter_name":"Yanissa Caridad Rivas 12/30/2025","matter_created_date":"2026-01-02T16:35:09.000Z","matter_phase":"1. Insurance Verification","legal_case_id":null,"case_code":null,"case_type":"Personal Injury","litigation_stage":"Presuit","client_name":"Yanissa Rivas","case_open_date":"2026-01-02","accident_timestamp":"2025-12-31T03:42:00.000Z","statute_of_limitations":"2027-12-30","first_demand_date":null,"first_offer_date":null,"disengagement_date":null,"case_law_status":"New","internal_case_status":"1. Insurance Verification","tbi_status":"PENDING TBI Decision","priority_rating":"6.00","latest_offer_amount":"0.00","earliest_offer_amount":null,"valuation_low":"25000.00","valuation_high":"0.00","total_settlement_amount":null},{"projection_id":"a45UR000002nhViYAI","matter_link":"a0OUR00000Hew9x2AB","projection_name":"P-233001","projection_created_date":"2026-01-02T16:35:12.000Z","projected_actual_value":null,"projected_future_value":null,"projection_matter_phase":"1. Insurance Verification","matter_id":"a0OUR00000Hew9x2AB","matter_name":"Yanissa Caridad Rivas 12/30/2025","matter_created_date":"2026-01-02T16:35:09.000Z","matter_phase":"1. Insurance Verification","legal_case_id":null,"case_code":null,"case_type":"Personal Injury","litigation_stage":"Presuit","client_name":"Yanissa Rivas","case_open_date":"2026-01-02","accident_timestamp":"2025-12-31T03:42:00.000Z","statute_of_limitations":"2027-12-30","first_demand_date":null,"first_offer_date":null,"disengagement_date":null,"case_law_status":"New","internal_case_status":"1. Insurance Verification","tbi_status":"PENDING TBI Decision","priority_rating":"6.00","latest_offer_amount":"0.00","earliest_offer_amount":null,"valuation_low":"25000.00","valuation_high":"0.00","total_settlement_amount":null}],"pagination":{"page":1,"limit":5,"hasMore":true,"totalCount":60},"timestamp":"2026-02-09T10:08:22.504Z"}